Diseño De Experimentos - Optimización de la transferencia de bases de datos: Un análisis factorial del tipo de archivo, dispositivo de almacenamiento y uso de RAM
…
# A tibble: 81 × 4
   Almacenamiento Archivo   RAM Tiempo
            <dbl>   <dbl> <dbl>  <dbl>
 1              1       1     1   5.43
 2              2       2     1   2.65
 3              3       2     1   4.7 
 4              3       2     2   4.07
 5              3       1     1   3.91
 6              2       2     2   2.13
 7              1       1     3   6.26
 8              2       1     2   1.78
 9              2       3     2   2.32
10              2       3     3   2.43
# ℹ 71 more rows
…
